…
``` r
library(tidyverse)

# Assuming your data frame is named "applications"
applications <- applications %>%
  mutate(WG = substr(examiner_art_unit, 1, 3))
# Print the table with the new column
print(applications)
```

    ## # A tibble: 2,018,477 × 22
    ##    application_number filing_date examiner_name_last examiner_name_first
    ##    <chr>              <date>      <chr>              <chr>              
    ##  1 08284457           2000-01-26  HOWARD             JACQUELINE         
    ##  2 08413193           2000-10-11  YILDIRIM           BEKIR              
    ##  3 08531853           2000-05-17  HAMILTON           CYNTHIA            
    ##  4 08637752           2001-07-20  MOSHER             MARY               
    ##  5 08682726           2000-04-10  BARR               MICHAEL            
    ##  6 08687412           2000-04-28  GRAY               LINDA              
    ##  7 08716371           2004-01-26  MCMILLIAN          KARA               
    ##  8 08765941           2000-06-23  FORD               VANESSA            
    ##  9 08776818           2000-02-04  STRZELECKA         TERESA             
    ## 10 08809677           2002-02-20  KIM                SUN                
    ## # ℹ 2,018,467 more rows
    ## # ℹ 18 more variables: examiner_name_middle <chr>, examiner_id <dbl>,
    ## #   examiner_art_unit <dbl>, uspc_class <chr>, uspc_subclass <chr>,
    ## #   patent_number <chr>, patent_issue_date <date>, abandon_date <date>,
    ## #   disposal_type <chr>, appl_status_code <dbl>, appl_status_date <chr>,
    ## #   tc <dbl>, gender <chr>, race <chr>, earliest_date <date>,
    ## #   latest_date <date>, tenure_days <dbl>, WG <chr>
…
